[{
        "label": "/Filamentos",
        "enabled": true,
        "active": false,
        "interaction": "PAGEROUTE",
        "route": "/inventory/coillist"
    },
    {
        "label": "/Inventario",
        "enabled": true,
        "active": false,
        "interaction": "PAGEROUTE",
        "route": "/inventory/partlist"
    },
    {
        "label": "/Pedidos",
        "enabled": true,
        "active": false,
        "hasMenu": true,
        "interaction": "PAGEROUTE",
        "route": "/production/requestlist"
    },
    {
        "label": "/Trabajos Pnd.",
        "enabled": true,
        "active": false,
        "interaction": "PAGEROUTE",
        "route": "/production/pendingjobs"
    },
    {
        "label": "/Nuevo Filamento",
        "enabled": true,
        "active": false,
        "interaction": "DIALOG",
        "route": "NewCoilDialog"
    },
    {
        "label": "/Nueva Pieza",
        "enabled": true,
        "active": false,
        "interaction": "DIALOG",
        "route": "NewPartDialog"
    },
    {
        "label": "/Nuevo Modelo",
        "enabled": true,
        "active": false,
        "interaction": "PAGEROUTE",
        "modifier": "DROP",
        "route": "/inventory/newmodel"
    },
    {
        "label": "/Nuevo Pedido",
        "enabled": true,
        "active": false,
        "interaction": "PAGEROUTE",
        "modifier": "DROP",
        "route": "/production/newrequest"
    },
    {
        "label": "/Extracciones",
        "enabled": true,
        "active": false,
        "interaction": "PAGEROUTE",
        "route": "/extractions"
    }
]