{
    "settings": {
        "appname": "Tetsuo3D - UI",
        "port": 5100,
        "applicationhome": "/dist/Printer3D-frontend",
        "backendproxy": "http://localhost:5110/",
        "apppath": "/app",
        "apipath": "/api"
    },
    "pages": {
        "staticpublic": "./public",
        "homepage": "/home-development.html"
    }
}